Tema 5: Data munging: manejo de datos con R, the tidyverse way | Edison Achalma, Econ
…
quitar variables por posición

Seleccionamos todas las variables del df gapminder excepto las siguientes: de la primera a la tercer y la quinta (mejor seleccionarlas por nombre)

#- quitamos las variables {1, 2, 3 y 5}
aa <- gapminder %>% select(- c(1:3, 5))

select() con la función auxiliar where()

En el data.frame gapminder las 2 primeras variables (country y continent) son factores y las 4 siguientes son variable numéricas.

print(gapminder, n = 3)
#> # A tibble: 1,704 x 6
#>   country     continent  year lifeExp      pop gdpPercap
#>   <fct>       <fct>     <int>   <dbl>    <int>     <dbl>
#> 1 Afghanistan Asia       1952    28.8  8425333      779.
#> 2 Afghanistan Asia       1957    30.3  9240934      821.
#> 3 Afghanistan Asia       1962    32.0 10267083      853.
#> # … with 1,701 more rows
…
